<?xml version="1.0" encoding="utf-8"?>
<!-- Generator: Adobe Illustrator 22.1.0, SVG Export Plug-In . SVG Version: 6.00 Build 0)  -->
<svg version="1.1" id="Capa_1" xmlns="http://www.w3.org/2000/svg" xmlns:xlink="http://www.w3.org/1999/xlink" x="0px" y="0px"
	 viewBox="0 0 37 45.3" style="enable-background:new 0 0 37 45.3;" xml:space="preserve">
<g>
	<path style="fill:#EDD834;" d="M32,20.7c-3.1,6.3-10.6,9-16.7,6c-6.1-3-8.5-10.6-5.3-16.9c3.1-6.3,10.6-9,16.7-6
		C32.7,6.8,35.1,14.4,32,20.7"/>
	<path style="fill:#EDD834;" d="M19.4,30.8c-0.6,1.3-2.2,1.8-3.4,1.2l-5.1-2.5c-1.3-0.6-1.8-2.2-1.2-3.4l3-6
		c0.6-1.3,2.2-1.8,3.4-1.2l5.1,2.5c1.3,0.6,1.8,2.2,1.2,3.4L19.4,30.8z"/>
	
		<rect x="4" y="23.6" transform="matrix(0.2855 -0.9584 0.9584 0.2855 -13.08 30.2007)" style="fill:#FFFFFF;" width="19.5" height="0.5"/>
	
		<rect x="8.9" y="26.1" transform="matrix(0.5869 -0.8097 0.8097 0.5869 -13.6007 25.9677)" style="fill:#FFFFFF;" width="19.5" height="0.5"/>
	<path style="fill:#FFFFFF;" d="M16.1,14.5c-0.3,0.8-0.2,1.9,0.6,2.4c0.8,0.5,1.6,0,2-0.8c0.1-0.4-0.4-0.7-0.6-0.3
		c-0.4,0.7-0.3,1.5,0.4,2c0.8,0.5,1.6-0.1,2-0.8L20,16.6c-0.3,0.7-0.2,1.5,0.6,1.9c0.8,0.4,1.6-0.1,1.9-0.8
		c-0.2-0.1-0.4-0.2-0.6-0.3c-0.3,0.7-0.4,1.6,0.5,2c0.8,0.4,1.7-0.1,2.2-0.7c0.2-0.3-0.2-0.8-0.5-0.4c-0.7,0.9-2.2,0.8-1.6-0.6
		c0.2-0.4-0.4-0.7-0.6-0.3c-0.5,1-1.8,0.6-1.3-0.5c0.2-0.4-0.4-0.6-0.6-0.3c-0.6,1.1-1.8,0.5-1.3-0.6c-0.2-0.1-0.4-0.2-0.6-0.3
		c-0.2,0.5-0.5,0.9-1,0.6c-0.6-0.3-0.6-1.1-0.4-1.6C16.8,14.4,16.3,14.1,16.1,14.5"/>
	<path style="fill-rule:evenodd;clip-rule:evenodd;fill:#77AC60;" d="M20.3,33.3c-0.4,0.7-1.2,1-2,0.7L7.7,28.7
		c-0.7-0.4-1-1.2-0.7-2l0.1-0.3c0.4-0.7,1.2-1,2-0.7l10.6,5.3c0.7,0.4,1,1.2,0.7,2L20.3,33.3z"/>
	<path style="fill-rule:evenodd;clip-rule:evenodd;fill:#77AC60;" d="M18.7,36.6c-0.4,0.7-1.2,1-2,0.7L6.1,32c-0.7-0.4-1-1.2-0.7-2
		l0.1-0.3c0.4-0.7,1.2-1,2-0.7l10.6,5.3c0.7,0.4,1,1.2,0.7,2L18.7,36.6z"/>
	<path style="fill-rule:evenodd;clip-rule:evenodd;fill:#77AC60;" d="M17.1,39.9c-0.4,0.7-1.2,1-2,0.7L4.5,35.3
		c-0.7-0.4-1-1.2-0.7-2l0.1-0.3c0.4-0.7,1.2-1,2-0.7l10.6,5.3c0.7,0.4,1,1.2,0.7,2L17.1,39.9z"/>
	<path style="fill-rule:evenodd;clip-rule:evenodd;fill:#51813E;" d="M14.4,40.7c-1,2.1-4,2.7-6.7,1.4c-2.6-1.3-4-4.1-2.9-6.1"/>
</g>
</svg>
